com\bank\accountoperations\AccountOperationType.class
com\bank\accountoperations\Transfer.class
com\bank\model\ClientInformation.class
com\bank\model\Bank.class
com\bank\interest\InterestCalculator.class
com\bank\model\History.class
com\bank\interest\LinearInterestCalculator.class
com\bank\model\Debit.class
com\bank\model\Credit.class
com\bank\model\Investment.class
com\bank\accountoperations\BankTransfer.class
com\bank\accountoperations\Withdraw.class
Main.class
com\bank\model\Client.class
com\bank\interest\ExpotentialWithBenefitInterestCalculator.class
com\bank\model\Account.class
com\bank\interest\ExponentialInterestCalculator.class
com\bank\model\Raport.class
com\bank\accountoperations\AccountOperation.class
com\bank\accountoperations\Mediator.class
com\bank\accountoperations\Deposit.class
